%!PS-Adobe-3.0 EPSF-3.0
%%Creator: MATLAB, The MathWorks, Inc. Version 8.0.0.783 (R2012b). Operating System: Darwin 13.4.0 Darwin Kernel Version 13.4.0: Mon Jan 11 18:17:34 PST 2016; root:xnu-2422.115.15~1/RELEASE_X86_64 x86_64.
%%Title: /Users/xugang/isogeo/super-IGA/GIFT2016_NURBSPHT/errorAnnuPHT-GIFT.eps
%%CreationDate: 02/14/2017  10:02:43
%%DocumentNeededFonts: Helvetica
%%+ Times-Roman
%%+ Helvetica-Bold
%%DocumentProcessColors: Cyan Magenta Yellow Black
%%LanguageLevel: 2
%%Pages: 1
%%BoundingBox:   -74    30   687   762
%%EndComments

%%BeginProlog
% MathWorks dictionary
/MathWorks 160 dict begin
% definition operators
/bdef {bind def} bind def
/ldef {load def} bind def
/xdef {exch def} bdef
/xstore {exch store} bdef
% operator abbreviations
/c  /clip ldef
/cc /concat ldef
/cp /closepath ldef
/gr /grestore ldef
/gs /gsave ldef
/mt /moveto ldef
/np /newpath ldef
/cm /currentmatrix ldef
/sm /setmatrix ldef
/rm /rmoveto ldef
/rl /rlineto ldef
/s {show newpath} bdef
/sc {setcmykcolor} bdef
/sr /setrgbcolor ldef
/sg /setgray ldef
/w /setlinewidth ldef
/j /setlinejoin ldef
/cap /setlinecap ldef
/rc {rectclip} bdef
/rf {rectfill} bdef
% page state control
/pgsv () def
/bpage {/pgsv save def} bdef
/epage {pgsv restore} bdef
/bplot /gsave ldef
/eplot {stroke grestore} bdef
% orientation switch
/portraitMode 0 def /landscapeMode 1 def /rotateMode 2 def
% coordinate system mappings
/dpi2point 0 def
% font control
/FontSize 0 def
/FMS {/FontSize xstore findfont [FontSize 0 0 FontSize neg 0 0]
  makefont setfont} bdef
/reencode {exch dup where {pop load} {pop StandardEncoding} ifelse
  exch dup 3 1 roll findfont dup length dict begin
  { 1 index /FID ne {def}{pop pop} ifelse } forall
  /Encoding exch def currentdict end definefont pop} bdef
/isroman {findfont /CharStrings get /Agrave known} bdef
/FMSR {3 1 roll 1 index dup isroman {reencode} {pop pop} ifelse
  exch FMS} bdef
/csm {1 dpi2point div -1 dpi2point div scale neg translate
 dup landscapeMode eq {pop -90 rotate}
  {rotateMode eq {90 rotate} if} ifelse} bdef
% line types: solid, dotted, dashed, dotdash
/SO { [] 0 setdash } bdef
/DO { [.5 dpi2point mul 4 dpi2point mul] 0 setdash } bdef
/DA { [6 dpi2point mul] 0 setdash } bdef
/DD { [.5 dpi2point mul 4 dpi2point mul 6 dpi2point mul 4
  dpi2point mul] 0 setdash } bdef
% macros for lines and objects
/L {lineto stroke} bdef
/MP {3 1 roll moveto 1 sub {rlineto} repeat} bdef
/AP {{rlineto} repeat} bdef
/PDlw -1 def
/W {/PDlw currentlinewidth def setlinewidth} def
/PP {closepath eofill} bdef
/DP {closepath stroke} bdef
/MR {4 -2 roll moveto dup  0 exch rlineto exch 0 rlineto
  neg 0 exch rlineto closepath} bdef
/FR {MR stroke} bdef
/PR {MR fill} bdef
/L1i {{currentfile picstr readhexstring pop} image} bdef
/tMatrix matrix def
/MakeOval {newpath tMatrix currentmatrix pop translate scale
0 0 1 0 360 arc tMatrix setmatrix} bdef
/FO {MakeOval stroke} bdef
/PO {MakeOval fill} bdef
/PD {currentlinewidth 2 div 0 360 arc fill
   PDlw -1 eq not {PDlw w /PDlw -1 def} if} def
/FA {newpath tMatrix currentmatrix pop translate scale
  0 0 1 5 -2 roll arc tMatrix setmatrix stroke} bdef
/PA {newpath tMatrix currentmatrix pop	translate 0 0 moveto scale
  0 0 1 5 -2 roll arc closepath tMatrix setmatrix fill} bdef
/FAn {newpath tMatrix currentmatrix pop translate scale
  0 0 1 5 -2 roll arcn tMatrix setmatrix stroke} bdef
/PAn {newpath tMatrix currentmatrix pop translate 0 0 moveto scale
  0 0 1 5 -2 roll arcn closepath tMatrix setmatrix fill} bdef
/vradius 0 def /hradius 0 def /lry 0 def
/lrx 0 def /uly 0 def /ulx 0 def /rad 0 def
/MRR {/vradius xdef /hradius xdef /lry xdef /lrx xdef /uly xdef
  /ulx xdef newpath tMatrix currentmatrix pop ulx hradius add uly
  vradius add translate hradius vradius scale 0 0 1 180 270 arc 
  tMatrix setmatrix lrx hradius sub uly vradius add translate
  hradius vradius scale 0 0 1 270 360 arc tMatrix setmatrix
  lrx hradius sub lry vradius sub translate hradius vradius scale
  0 0 1 0 90 arc tMatrix setmatrix ulx hradius add lry vradius sub
  translate hradius vradius scale 0 0 1 90 180 arc tMatrix setmatrix
  closepath} bdef
/FRR {MRR stroke } bdef
/PRR {MRR fill } bdef
/MlrRR {/lry xdef /lrx xdef /uly xdef /ulx xdef /rad lry uly sub 2 div def
  newpath tMatrix currentmatrix pop ulx rad add uly rad add translate
  rad rad scale 0 0 1 90 270 arc tMatrix setmatrix lrx rad sub lry rad
  sub translate rad rad scale 0 0 1 270 90 arc tMatrix setmatrix
  closepath} bdef
/FlrRR {MlrRR stroke } bdef
/PlrRR {MlrRR fill } bdef
/MtbRR {/lry xdef /lrx xdef /uly xdef /ulx xdef /rad lrx ulx sub 2 div def
  newpath tMatrix currentmatrix pop ulx rad add uly rad add translate
  rad rad scale 0 0 1 180 360 arc tMatrix setmatrix lrx rad sub lry rad
  sub translate rad rad scale 0 0 1 0 180 arc tMatrix setmatrix
  closepath} bdef
/FtbRR {MtbRR stroke } bdef
/PtbRR {MtbRR fill } bdef
/stri 6 array def /dtri 6 array def
/smat 6 array def /dmat 6 array def
/tmat1 6 array def /tmat2 6 array def /dif 3 array def
/asub {/ind2 exch def /ind1 exch def dup dup
  ind1 get exch ind2 get sub exch } bdef
/tri_to_matrix {
  2 0 asub 3 1 asub 4 0 asub 5 1 asub
  dup 0 get exch 1 get 7 -1 roll astore } bdef
/compute_transform {
  dmat dtri tri_to_matrix tmat1 invertmatrix 
  smat stri tri_to_matrix tmat2 concatmatrix } bdef
/ds {stri astore pop} bdef
/dt {dtri astore pop} bdef
/db {2 copy /cols xdef /rows xdef mul dup 3 mul string
  currentfile 
  3 index 0 eq {/ASCIIHexDecode filter}
  {/ASCII85Decode filter 3 index 2 eq {/RunLengthDecode filter} if }
  ifelse exch readstring pop
  dup 0 3 index getinterval /rbmap xdef
  dup 2 index dup getinterval /gbmap xdef
  1 index dup 2 mul exch getinterval /bbmap xdef pop pop}bdef
/it {gs np dtri aload pop moveto lineto lineto cp c
  cols rows 8 compute_transform 
  rbmap gbmap bbmap true 3 colorimage gr}bdef
/il {newpath moveto lineto stroke}bdef
currentdict end def
%%EndProlog

%%BeginSetup
MathWorks begin

0 cap

end
%%EndSetup

%%Page: 1 1
%%BeginPageSetup
%%PageBoundingBox:   -74    30   687   762
MathWorks begin
bpage
%%EndPageSetup

%%BeginObject: obj1
bplot

/dpi2point 12 def
portraitMode -0888 9144 csm

    0     0  9132  8773 rc
87 dict begin %Colortable dictionary
/c0 { 0.000000 0.000000 0.000000 sr} bdef
/c1 { 1.000000 1.000000 1.000000 sr} bdef
/c2 { 0.900000 0.000000 0.000000 sr} bdef
/c3 { 0.000000 0.820000 0.000000 sr} bdef
/c4 { 0.000000 0.000000 0.800000 sr} bdef
/c5 { 0.910000 0.820000 0.320000 sr} bdef
/c6 { 1.000000 0.260000 0.820000 sr} bdef
/c7 { 0.000000 0.820000 0.820000 sr} bdef
c0
1 j
1 sg
   0    0 9133 8774 rf
6 w
0 7150 7077 0 0 -7150 1187 7808 4 MP
PP
-7077 0 0 7150 7077 0 0 -7150 1187 7808 5 MP stroke
4 w
DO
SO
6 w
0 sg
1187 7808 mt 8264 7808 L
1187  658 mt 8264  658 L
1187 7808 mt 1187  658 L
8264 7808 mt 8264  658 L
1187 7808 mt 8264 7808 L
1187 7808 mt 1187  658 L
1187 7808 mt 1187 7772 L
1187  658 mt 1187  693 L
1187 7808 mt 1187 7736 L
1187  658 mt 1187  729 L
%%IncludeResource: font Helvetica
/Helvetica /ISOLatin1Encoding 168 FMSR

1063 8050 mt 
(10) s
%%IncludeResource: font Helvetica
/Helvetica /ISOLatin1Encoding 112 FMSR

1249 7946 mt 
(1) s
1719 7808 mt 1719 7772 L
1719  658 mt 1719  693 L
2031 7808 mt 2031 7772 L
2031  658 mt 2031  693 L
2252 7808 mt 2252 7772 L
2252  658 mt 2252  693 L
2423 7808 mt 2423 7772 L
2423  658 mt 2423  693 L
2563 7808 mt 2563 7772 L
2563  658 mt 2563  693 L
2682 7808 mt 2682 7772 L
2682  658 mt 2682  693 L
2784 7808 mt 2784 7772 L
2784  658 mt 2784  693 L
2875 7808 mt 2875 7772 L
2875  658 mt 2875  693 L
2956 7808 mt 2956 7772 L
2956  658 mt 2956  693 L
2956 7808 mt 2956 7736 L
2956  658 mt 2956  729 L
%%IncludeResource: font Helvetica
/Helvetica /ISOLatin1Encoding 168 FMSR

2832 8050 mt 
(10) s
%%IncludeResource: font Helvetica
/Helvetica /ISOLatin1Encoding 112 FMSR

3018 7946 mt 
(2) s
3488 7808 mt 3488 7772 L
3488  658 mt 3488  693 L
3800 7808 mt 3800 7772 L
3800  658 mt 3800  693 L
4021 7808 mt 4021 7772 L
4021  658 mt 4021  693 L
4192 7808 mt 4192 7772 L
4192  658 mt 4192  693 L
4332 7808 mt 4332 7772 L
4332  658 mt 4332  693 L
4451 7808 mt 4451 7772 L
4451  658 mt 4451  693 L
4554 7808 mt 4554 7772 L
4554  658 mt 4554  693 L
4644 7808 mt 4644 7772 L
4644  658 mt 4644  693 L
4725 7808 mt 4725 7772 L
4725  658 mt 4725  693 L
4725 7808 mt 4725 7736 L
4725  658 mt 4725  729 L
%%IncludeResource: font Helvetica
/Helvetica /ISOLatin1Encoding 168 FMSR

4601 8050 mt 
(10) s
%%IncludeResource: font Helvetica
/Helvetica /ISOLatin1Encoding 112 FMSR

4787 7946 mt 
(3) s
5258 7808 mt 5258 7772 L
5258  658 mt 5258  693 L
5569 7808 mt 5569 7772 L
5569  658 mt 5569  693 L
5790 7808 mt 5790 7772 L
5790  658 mt 5790  693 L
5962 7808 mt 5962 7772 L
5962  658 mt 5962  693 L
6102 7808 mt 6102 7772 L
6102  658 mt 6102  693 L
6220 7808 mt 6220 7772 L
6220  658 mt 6220  693 L
6323 7808 mt 6323 7772 L
6323  658 mt 6323  693 L
6413 7808 mt 6413 7772 L
6413  658 mt 6413  693 L
6494 7808 mt 6494 7772 L
6494  658 mt 6494  693 L
6494 7808 mt 6494 7736 L
6494  658 mt 6494  729 L
%%IncludeResource: font Helvetica
/Helvetica /ISOLatin1Encoding 168 FMSR

6370 8050 mt 
(10) s
%%IncludeResource: font Helvetica
/Helvetica /ISOLatin1Encoding 112 FMSR

6556 7946 mt 
(4) s
7027 7808 mt 7027 7772 L
7027  658 mt 7027  693 L
7338 7808 mt 7338 7772 L
7338  658 mt 7338  693 L
7559 7808 mt 7559 7772 L
7559  658 mt 7559  693 L
7731 7808 mt 7731 7772 L
7731  658 mt 7731  693 L
7871 7808 mt 7871 7772 L
7871  658 mt 7871  693 L
7989 7808 mt 7989 7772 L
7989  658 mt 7989  693 L
8092 7808 mt 8092 7772 L
8092  658 mt 8092  693 L
8183 7808 mt 8183 7772 L
8183  658 mt 8183  693 L
8264 7808 mt 8264 7772 L
8264  658 mt 8264  693 L
8264 7808 mt 8264 7736 L
8264  658 mt 8264  729 L
%%IncludeResource: font Helvetica
/Helvetica /ISOLatin1Encoding 168 FMSR

8140 8050 mt 
(10) s
%%IncludeResource: font Helvetica
/Helvetica /ISOLatin1Encoding 112 FMSR

8326 7946 mt 
(5) s
1187 7808 mt 1222 7808 L
8264 7808 mt 8228 7808 L
1187 7808 mt 1258 7808 L
8264 7808 mt 8192 7808 L
%%IncludeResource: font Helvetica
/Helvetica /ISOLatin1Encoding 168 FMSR

 839 7870 mt 
(10) s
%%IncludeResource: font Helvetica
/Helvetica /ISOLatin1Encoding 112 FMSR

1025 7766 mt 
(-6) s
1187 7449 mt 1222 7449 L
8264 7449 mt 8228 7449 L
1187 7239 mt 1222 7239 L
8264 7239 mt 8228 7239 L
1187 7090 mt 1222 7090 L
8264 7090 mt 8228 7090 L
1187 6975 mt 1222 6975 L
8264 6975 mt 8228 6975 L
1187 6880 mt 1222 6880 L
8264 6880 mt 8228 6880 L
1187 6800 mt 1222 6800 L
8264 6800 mt 8228 6800 L
1187 6731 mt 1222 6731 L
8264 6731 mt 8228 6731 L
1187 6670 mt 1222 6670 L
8264 6670 mt 8228 6670 L
1187 6616 mt 1222 6616 L
8264 6616 mt 8228 6616 L
1187 6616 mt 1258 6616 L
8264 6616 mt 8192 6616 L
%%IncludeResource: font Helvetica
/Helvetica /ISOLatin1Encoding 168 FMSR

 839 6678 mt 
(10) s
%%IncludeResource: font Helvetica
/Helvetica /ISOLatin1Encoding 112 FMSR

1025 6574 mt 
(-5) s
1187 6257 mt 1222 6257 L
8264 6257 mt 8228 6257 L
1187 6047 mt 1222 6047 L
8264 6047 mt 8228 6047 L
1187 5898 mt 1222 5898 L
8264 5898 mt 8228 5898 L
1187 5783 mt 1222 5783 L
8264 5783 mt 8228 5783 L
1187 5689 mt 1222 5689 L
8264 5689 mt 8228 5689 L
1187 5609 mt 1222 5609 L
8264 5609 mt 8228 5609 L
1187 5540 mt 1222 5540 L
8264 5540 mt 8228 5540 L
1187 5479 mt 1222 5479 L
8264 5479 mt 8228 5479 L
1187 5424 mt 1222 5424 L
8264 5424 mt 8228 5424 L
1187 5424 mt 1258 5424 L
8264 5424 mt 8192 5424 L
%%IncludeResource: font Helvetica
/Helvetica /ISOLatin1Encoding 168 FMSR

 839 5486 mt 
(10) s
%%IncludeResource: font Helvetica
/Helvetica /ISOLatin1Encoding 112 FMSR

1025 5382 mt 
(-4) s
1187 5065 mt 1222 5065 L
8264 5065 mt 8228 5065 L
1187 4856 mt 1222 4856 L
8264 4856 mt 8228 4856 L
1187 4707 mt 1222 4707 L
8264 4707 mt 8228 4707 L
1187 4591 mt 1222 4591 L
8264 4591 mt 8228 4591 L
1187 4497 mt 1222 4497 L
8264 4497 mt 8228 4497 L
1187 4417 mt 1222 4417 L
8264 4417 mt 8228 4417 L
1187 4348 mt 1222 4348 L
8264 4348 mt 8228 4348 L
1187 4287 mt 1222 4287 L
8264 4287 mt 8228 4287 L
1187 4233 mt 1222 4233 L
8264 4233 mt 8228 4233 L
1187 4233 mt 1258 4233 L
8264 4233 mt 8192 4233 L
%%IncludeResource: font Helvetica
/Helvetica /ISOLatin1Encoding 168 FMSR

 839 4295 mt 
(10) s
%%IncludeResource: font Helvetica
/Helvetica /ISOLatin1Encoding 112 FMSR

1025 4191 mt 
(-3) s
1187 3874 mt 1222 3874 L
8264 3874 mt 8228 3874 L
1187 3664 mt 1222 3664 L
8264 3664 mt 8228 3664 L
1187 3515 mt 1222 3515 L
8264 3515 mt 8228 3515 L
1187 3400 mt 1222 3400 L
8264 3400 mt 8228 3400 L
1187 3305 mt 1222 3305 L
8264 3305 mt 8228 3305 L
1187 3225 mt 1222 3225 L
8264 3225 mt 8228 3225 L
1187 3156 mt 1222 3156 L
8264 3156 mt 8228 3156 L
1187 3095 mt 1222 3095 L
8264 3095 mt 8228 3095 L
1187 3041 mt 1222 3041 L
8264 3041 mt 8228 3041 L
1187 3041 mt 1258 3041 L
8264 3041 mt 8192 3041 L
%%IncludeResource: font Helvetica
/Helvetica /ISOLatin1Encoding 168 FMSR

 839 3103 mt 
(10) s
%%IncludeResource: font Helvetica
/Helvetica /ISOLatin1Encoding 112 FMSR

1025 2999 mt 
(-2) s
1187 2682 mt 1222 2682 L
8264 2682 mt 8228 2682 L
1187 2472 mt 1222 2472 L
8264 2472 mt 8228 2472 L
1187 2323 mt 1222 2323 L
8264 2323 mt 8228 2323 L
1187 2208 mt 1222 2208 L
8264 2208 mt 8228 2208 L
1187 2114 mt 1222 2114 L
8264 2114 mt 8228 2114 L
1187 2034 mt 1222 2034 L
8264 2034 mt 8228 2034 L
1187 1965 mt 1222 1965 L
8264 1965 mt 8228 1965 L
1187 1904 mt 1222 1904 L
8264 1904 mt 8228 1904 L
1187 1849 mt 1222 1849 L
8264 1849 mt 8228 1849 L
1187 1849 mt 1258 1849 L
8264 1849 mt 8192 1849 L
%%IncludeResource: font Helvetica
/Helvetica /ISOLatin1Encoding 168 FMSR

 839 1911 mt 
(10) s
%%IncludeResource: font Helvetica
/Helvetica /ISOLatin1Encoding 112 FMSR

1025 1807 mt 
(-1) s
1187 1490 mt 1222 1490 L
8264 1490 mt 8228 1490 L
1187 1281 mt 1222 1281 L
8264 1281 mt 8228 1281 L
1187 1132 mt 1222 1132 L
8264 1132 mt 8228 1132 L
1187 1016 mt 1222 1016 L
8264 1016 mt 8228 1016 L
1187  922 mt 1222  922 L
8264  922 mt 8228  922 L
1187  842 mt 1222  842 L
8264  842 mt 8228  842 L
1187  773 mt 1222  773 L
8264  773 mt 8228  773 L
1187  712 mt 1222  712 L
8264  712 mt 8228  712 L
1187  658 mt 1222  658 L
8264  658 mt 8228  658 L
1187  658 mt 1258  658 L
8264  658 mt 8192  658 L
%%IncludeResource: font Helvetica
/Helvetica /ISOLatin1Encoding 168 FMSR

 839  720 mt 
(10) s
%%IncludeResource: font Helvetica
/Helvetica /ISOLatin1Encoding 112 FMSR

1025  616 mt 
(0) s
1187 7808 mt 8264 7808 L
1187  658 mt 8264  658 L
1187 7808 mt 1187  658 L
8264 7808 mt 8264  658 L
%%IncludeResource: font Helvetica
/Helvetica /ISOLatin1Encoding 120 FMSR

1159 7871 mt 
( ) s
8237  720 mt 
( ) s
gs 1187 658 7078 7151 rc
24 w
/c8 { 1.000000 0.000000 1.000000 sr} bdef
c8
1066 1340 1065 1430 1065 1266 1408 1775 2613 1482 5 MP stroke
gs 2515 1384 4801 6008 rc
2577 1482 mt 2649 1482 L
2613 1446 mt 2613 1518 L
3985 3257 mt 4057 3257 L
4021 3221 mt 4021 3293 L
5050 4523 mt 5122 4523 L
5086 4487 mt 5086 4559 L
6115 5953 mt 6187 5953 L
6151 5917 mt 6151 5989 L
7181 7293 mt 7253 7293 L
7217 7257 mt 7217 7329 L
gr

/c9 { 0.000000 0.000000 1.000000 sr} bdef
c9
1066 1362 1065 1391 1065 1358 1408 1780 2613 1485 5 MP stroke
gs 2515 1387 4801 6088 rc
0 j
-41 71 -41 -71 82 0 2572 1509 4 MP
DP
-41 71 -41 -71 82 0 3980 3289 4 MP
DP
-41 71 -41 -71 82 0 5045 4647 4 MP
DP
-41 71 -41 -71 82 0 6110 6038 4 MP
DP
-41 71 -41 -71 82 0 7176 7400 4 MP
DP
gr

/c10 { 0.000000 1.000000 0.000000 sr} bdef
c10
778 1274 1118 2181 894 1527 601 840 2613 1434 5 MP stroke
gs 2515 1336 3588 6019 rc
2577 1434 mt 2649 1434 L
2613 1398 mt 2613 1470 L
3178 2274 mt 3250 2274 L
3214 2238 mt 3214 2310 L
4072 3801 mt 4144 3801 L
4108 3765 mt 4108 3837 L
5190 5982 mt 5262 5982 L
5226 5946 mt 5226 6018 L
5968 7256 mt 6040 7256 L
6004 7220 mt 6004 7292 L
2588 1409 mt 2638 1459 L
2638 1409 mt 2588 1459 L
3189 2249 mt 3239 2299 L
3239 2249 mt 3189 2299 L
4083 3776 mt 4133 3826 L
4133 3776 mt 4083 3826 L
5201 5957 mt 5251 6007 L
5251 5957 mt 5201 6007 L
5979 7231 mt 6029 7281 L
6029 7231 mt 5979 7281 L
gr

/c11 { 1.000000 0.000000 0.000000 sr} bdef
c11
778 1250 1118 2270 894 1529 601 799 2613 1485 5 MP stroke
gs 2515 1387 3588 6045 rc
0 j
0 -58 -58 0 0 58 58 0 2584 1456 5 MP
DP
0 -58 -58 0 0 58 58 0 3185 2255 5 MP
DP
0 -58 -58 0 0 58 58 0 4079 3784 5 MP
DP
0 -58 -58 0 0 58 58 0 5197 6054 5 MP
DP
0 -58 -58 0 0 58 58 0 5975 7304 5 MP
DP
gr

6 w
gr

c11
1 sg
0 1072 3531 0 0 -1072 4579 2290 4 MP
PP
-3531 0 0 1072 3531 0 0 -1072 4579 2290 5 MP stroke
4 w
DO
SO
6 w
0 sg
4579 2290 mt 8110 2290 L
4579 1218 mt 8110 1218 L
4579 2290 mt 4579 1218 L
8110 2290 mt 8110 1218 L
4579 2290 mt 8110 2290 L
4579 2290 mt 4579 1218 L
4579 2290 mt 8110 2290 L
4579 1218 mt 8110 1218 L
4579 2290 mt 4579 1218 L
8110 2290 mt 8110 1218 L
%%IncludeResource: font Helvetica-Bold
/Helvetica-Bold /ISOLatin1Encoding 192 FMSR

5061 1439 mt 
(GIFT with cubic B-spline field ) s
gs 4579 1218 3532 1073 rc
24 w
c8
371 0 4653 1367 2 MP stroke
gs 4740 1269 197 197 rc
4802 1367 mt 4874 1367 L
4838 1331 mt 4838 1403 L
gr

gr

24 w
c8
0 sg
5061 1697 mt 
(IGA with cubic NURBS field) s
gs 4579 1218 3532 1073 rc
c9
371 0 4653 1625 2 MP stroke
gs 4740 1527 197 197 rc
0 j
-41 71 -41 -71 82 0 4797 1649 4 MP
DP
gr

gr

c9
0 sg
5061 1954 mt 
(IGA with cubic PHT-spline field) s
gs 4579 1218 3532 1073 rc
c10
371 0 4653 1882 2 MP stroke
gs 4740 1784 197 197 rc
4802 1882 mt 4874 1882 L
4838 1846 mt 4838 1918 L
4813 1857 mt 4863 1907 L
4863 1857 mt 4813 1907 L
gr

gr

c10
0 sg
5061 2212 mt 
(GIFT with cubic PHT-spline field) s
gs 4579 1218 3532 1073 rc
c11
371 0 4653 2140 2 MP stroke
gs 4740 2042 197 197 rc
0 j
0 -58 -58 0 0 58 58 0 4809 2111 5 MP
DP
gr

6 w
gr

6 w
c11
0 sg
%%IncludeResource: font Helvetica-Bold
/Helvetica-Bold /ISOLatin1Encoding 288 FMSR

5729 6406 mt 
(4) s
24 w
544 -5 5944 6803 2 MP stroke
6135 7176 mt 
(1) s
%%IncludeResource: font Times-Roman
/Times-Roman /ISOLatin1Encoding 288 FMSR

3845 8448 mt 
(degree of freedom) s
0 780 5943 6016 2 MP stroke
534 808 5954 5993 2 MP stroke
 200 3889 mt 
(Relative) s
 200 4286 mt 
(L) s
%%IncludeResource: font Times-Roman
/Times-Roman /ISOLatin1Encoding 228 FMSR

 375 4142 mt 
(2) s
%%IncludeResource: font Times-Roman
/Times-Roman /ISOLatin1Encoding 288 FMSR

 200 4606 mt 
(error) s
6 w

end %%Color Dict

eplot
%%EndObject

epage
end

showpage

%%Trailer
%%EOF
